[
    {
        "name": "alap",
        "tables": [
            {
                "name": "tabla",
                "length": 2,
                "attributes": [
                    {
                        "name": "id",
                        "type": "INT"
                    },
                    {
                        "name": "Nev",
                        "type": "Varchar"
                    },
                    {
                        "name": "Tel",
                        "type": "INT"
                    }
                ],
                "primary-key": "id",
                "index": [
                    "Tel"
                ],
                "indexNames": [
                    "indexNev"
                ],
                "foreign-keys": [
                    "Tel"
                ],
                "unique-keys": [
                    "Nev"
                ],
                "references": [],
                "id-count": 58
            },
            {
                "name": "tabla2",
                "length": 2,
                "attributes": [
                    {
                        "name": "id",
                        "type": "INT"
                    },
                    {
                        "name": "Allat",
                        "type": "Varchar"
                    },
                    {
                        "name": "Tel2",
                        "type": "INT"
                    }
                ],
                "primary-key": "id",
                "index": [],
                "indexNames": [],
                "foreign-keys": [],
                "unique-keys": [
                    "Allat"
                ],
                "references": [
                    "tabla#Tel#Tel2"
                ],
                "id-count": 4
            },
            {
                "name": "tabla3",
                "length": 2,
                "attributes": [
                    {
                        "name": "id",
                        "type": "INT"
                    },
                    {
                        "name": "eloleny",
                        "type": "Varchar"
                    },
                    {
                        "name": "Tel3",
                        "type": "INT"
                    }
                ],
                "primary-key": "id",
                "index": [],
                "indexNames": [],
                "foreign-keys": [],
                "unique-keys": [],
                "references": [],
                "id-count": 2
            },
            {
                "name": "jajaja",
                "length": -1,
                "attributes": [
                    {
                        "name": "id",
                        "type": "INT"
                    }
                ],
                "primary-key": "id",
                "index": [],
                "indexNames": [],
                "foreign-keys": [],
                "unique-keys": [],
                "references": [],
                "id-count": 0
            },
            
            {
                "name": "yeska",
                "length": 2,
                "attributes": [
                    {
                        "name": "id",
                        "type": "INT"
                    },
                    {
                        "name": "id",
                        "type": "int"
                    },
                    {
                        "name": "name",
                        "type": "varchar"
                    }
                ],
                "primary-key": "id",
                "index": [],
                "indexNames": [],
                "foreign-keys": [],
                "unique-keys": [],
                "references": [],
                "id-count": 0
            }
        ]
    },
    {
        "name": "borton",
        "tables": [
            {
                "name": "rabok",
                "length": 4,
                "attributes": [
                    {
                        "name": "id",
                        "type": "INT"
                    },
                    {
                        "name": "name",
                        "type": "string"
                    },
                    {
                        "name": "gender",
                        "type": "string"
                    },
                    {
                        "name": "years",
                        "type": "int"
                    },
                    {
                        "name": "phone",
                        "type": "string"
                    }
                ],
                "primary-key": "id",
                "index": [
                    "years"
                ],
                "indexNames": [
                    "years"
                ],
                "foreign-keys": [
                    "years"
                ],
                "unique-keys": [
                    "phone"
                ],
                "references": [],
                "id-count": 100000
            },
            {
                "name": "year",
                "length": 1,
                "attributes": [
                    {
                        "name": "id",
                        "type": "INT"
                    },
                    {
                        "name": "severity",
                        "type": "int"
                    }
                ],
                "primary-key": "id",
                "index": [],
                "indexNames": [],
                "foreign-keys": [],
                "unique-keys": [],
                "references": [
                    "rabok#years#_id"
                ],
                "id-count": 50
            },
            {
                "name": "phone",
                "length": 2,
                "attributes": [
                    {
                        "name": "id",
                        "type": "INT"
                    },
                    {
                        "name": "number",
                        "type": "INT"
                    },
                    {
                        "name": "name",
                        "type": "int"
                    }
                ],
                "primary-key": "id",
                "index": [],
                "indexNames": [],
                "foreign-keys": [],
                "unique-keys": [],
                "references": [],
                "id-count": 100002
            }
        ]
    },
    {
        "name": "university",
        "tables": []
    },
    {
        "name": "Vili2",
        "tables": []
    },
    {
        "name": "Szopol_bolond",
        "tables": []
    }
]